{
	"partitions" : [
		{
			"name" : "Top",
			"pins" : [
				{
					"name" : "out[0]",
					"strict" : false
				},
				{
					"name" : "out[1]",
					"strict" : false
				},
				{
					"name" : "out[2]",
					"strict" : false
				},
				{
					"name" : "out[3]",
					"strict" : false
				},
				{
					"name" : "out[4]",
					"strict" : false
				},
				{
					"name" : "out[5]",
					"strict" : false
				},
				{
					"name" : "out[6]",
					"strict" : false
				},
				{
					"name" : "out[7]",
					"strict" : false
				},
				{
					"name" : "out[8]",
					"strict" : false
				},
				{
					"name" : "out[9]",
					"strict" : false
				},
				{
					"name" : "out[10]",
					"strict" : false
				},
				{
					"name" : "out[11]",
					"strict" : false
				},
				{
					"name" : "out[12]",
					"strict" : false
				},
				{
					"name" : "out[13]",
					"strict" : false
				},
				{
					"name" : "out[14]",
					"strict" : false
				},
				{
					"name" : "out[15]",
					"strict" : false
				},
				{
					"name" : "out[16]",
					"strict" : false
				},
				{
					"name" : "x_0[17]",
					"strict" : false
				},
				{
					"name" : "x_4[17]",
					"strict" : false
				},
				{
					"name" : "x_8[17]",
					"strict" : false
				},
				{
					"name" : "x_12[17]",
					"strict" : false
				},
				{
					"name" : "x_2[17]",
					"strict" : false
				},
				{
					"name" : "x_6[17]",
					"strict" : false
				},
				{
					"name" : "x_10[17]",
					"strict" : false
				},
				{
					"name" : "x_14[17]",
					"strict" : false
				},
				{
					"name" : "x_1[17]",
					"strict" : false
				},
				{
					"name" : "x_5[17]",
					"strict" : false
				},
				{
					"name" : "x_9[17]",
					"strict" : false
				},
				{
					"name" : "x_13[17]",
					"strict" : false
				},
				{
					"name" : "x_3[17]",
					"strict" : false
				},
				{
					"name" : "x_7[17]",
					"strict" : false
				},
				{
					"name" : "x_11[17]",
					"strict" : false
				},
				{
					"name" : "x_15[17]",
					"strict" : false
				},
				{
					"name" : "x_20[17]",
					"strict" : false
				},
				{
					"name" : "x_22[17]",
					"strict" : false
				},
				{
					"name" : "x_21[17]",
					"strict" : false
				},
				{
					"name" : "x_23[17]",
					"strict" : false
				},
				{
					"name" : "x_16[17]",
					"strict" : false
				},
				{
					"name" : "x_18[17]",
					"strict" : false
				},
				{
					"name" : "x_17[17]",
					"strict" : false
				},
				{
					"name" : "x_19[17]",
					"strict" : false
				},
				{
					"name" : "x_0[0]",
					"strict" : false
				},
				{
					"name" : "x_4[0]",
					"strict" : false
				},
				{
					"name" : "x_8[0]",
					"strict" : false
				},
				{
					"name" : "x_12[0]",
					"strict" : false
				},
				{
					"name" : "x_2[0]",
					"strict" : false
				},
				{
					"name" : "x_6[0]",
					"strict" : false
				},
				{
					"name" : "x_10[0]",
					"strict" : false
				},
				{
					"name" : "x_14[0]",
					"strict" : false
				},
				{
					"name" : "x_1[0]",
					"strict" : false
				},
				{
					"name" : "x_5[0]",
					"strict" : false
				},
				{
					"name" : "x_9[0]",
					"strict" : false
				},
				{
					"name" : "x_13[0]",
					"strict" : false
				},
				{
					"name" : "x_3[0]",
					"strict" : false
				},
				{
					"name" : "x_7[0]",
					"strict" : false
				},
				{
					"name" : "x_11[0]",
					"strict" : false
				},
				{
					"name" : "x_15[0]",
					"strict" : false
				},
				{
					"name" : "x_20[0]",
					"strict" : false
				},
				{
					"name" : "x_22[0]",
					"strict" : false
				},
				{
					"name" : "x_21[0]",
					"strict" : false
				},
				{
					"name" : "x_23[0]",
					"strict" : false
				},
				{
					"name" : "x_16[0]",
					"strict" : false
				},
				{
					"name" : "x_18[0]",
					"strict" : false
				},
				{
					"name" : "x_17[0]",
					"strict" : false
				},
				{
					"name" : "x_19[0]",
					"strict" : false
				},
				{
					"name" : "x_0[16]",
					"strict" : false
				},
				{
					"name" : "x_4[16]",
					"strict" : false
				},
				{
					"name" : "x_8[16]",
					"strict" : false
				},
				{
					"name" : "x_12[16]",
					"strict" : false
				},
				{
					"name" : "x_2[16]",
					"strict" : false
				},
				{
					"name" : "x_6[16]",
					"strict" : false
				},
				{
					"name" : "x_10[16]",
					"strict" : false
				},
				{
					"name" : "x_14[16]",
					"strict" : false
				},
				{
					"name" : "x_1[16]",
					"strict" : false
				},
				{
					"name" : "x_5[16]",
					"strict" : false
				},
				{
					"name" : "x_9[16]",
					"strict" : false
				},
				{
					"name" : "x_13[16]",
					"strict" : false
				},
				{
					"name" : "x_3[16]",
					"strict" : false
				},
				{
					"name" : "x_7[16]",
					"strict" : false
				},
				{
					"name" : "x_11[16]",
					"strict" : false
				},
				{
					"name" : "x_15[16]",
					"strict" : false
				},
				{
					"name" : "x_20[16]",
					"strict" : false
				},
				{
					"name" : "x_22[16]",
					"strict" : false
				},
				{
					"name" : "x_21[16]",
					"strict" : false
				},
				{
					"name" : "x_23[16]",
					"strict" : false
				},
				{
					"name" : "x_16[16]",
					"strict" : false
				},
				{
					"name" : "x_18[16]",
					"strict" : false
				},
				{
					"name" : "x_17[16]",
					"strict" : false
				},
				{
					"name" : "x_19[16]",
					"strict" : false
				},
				{
					"name" : "x_0[1]",
					"strict" : false
				},
				{
					"name" : "x_4[1]",
					"strict" : false
				},
				{
					"name" : "x_8[1]",
					"strict" : false
				},
				{
					"name" : "x_12[1]",
					"strict" : false
				},
				{
					"name" : "x_2[1]",
					"strict" : false
				},
				{
					"name" : "x_6[1]",
					"strict" : false
				},
				{
					"name" : "x_10[1]",
					"strict" : false
				},
				{
					"name" : "x_14[1]",
					"strict" : false
				},
				{
					"name" : "x_1[1]",
					"strict" : false
				},
				{
					"name" : "x_5[1]",
					"strict" : false
				},
				{
					"name" : "x_9[1]",
					"strict" : false
				},
				{
					"name" : "x_13[1]",
					"strict" : false
				},
				{
					"name" : "x_3[1]",
					"strict" : false
				},
				{
					"name" : "x_7[1]",
					"strict" : false
				},
				{
					"name" : "x_11[1]",
					"strict" : false
				},
				{
					"name" : "x_15[1]",
					"strict" : false
				},
				{
					"name" : "x_20[1]",
					"strict" : false
				},
				{
					"name" : "x_22[1]",
					"strict" : false
				},
				{
					"name" : "x_21[1]",
					"strict" : false
				},
				{
					"name" : "x_23[1]",
					"strict" : false
				},
				{
					"name" : "x_16[1]",
					"strict" : false
				},
				{
					"name" : "x_18[1]",
					"strict" : false
				},
				{
					"name" : "x_17[1]",
					"strict" : false
				},
				{
					"name" : "x_19[1]",
					"strict" : false
				},
				{
					"name" : "x_0[2]",
					"strict" : false
				},
				{
					"name" : "x_4[2]",
					"strict" : false
				},
				{
					"name" : "x_8[2]",
					"strict" : false
				},
				{
					"name" : "x_12[2]",
					"strict" : false
				},
				{
					"name" : "x_2[2]",
					"strict" : false
				},
				{
					"name" : "x_6[2]",
					"strict" : false
				},
				{
					"name" : "x_10[2]",
					"strict" : false
				},
				{
					"name" : "x_14[2]",
					"strict" : false
				},
				{
					"name" : "x_1[2]",
					"strict" : false
				},
				{
					"name" : "x_5[2]",
					"strict" : false
				},
				{
					"name" : "x_9[2]",
					"strict" : false
				},
				{
					"name" : "x_13[2]",
					"strict" : false
				},
				{
					"name" : "x_3[2]",
					"strict" : false
				},
				{
					"name" : "x_7[2]",
					"strict" : false
				},
				{
					"name" : "x_11[2]",
					"strict" : false
				},
				{
					"name" : "x_15[2]",
					"strict" : false
				},
				{
					"name" : "x_20[2]",
					"strict" : false
				},
				{
					"name" : "x_22[2]",
					"strict" : false
				},
				{
					"name" : "x_21[2]",
					"strict" : false
				},
				{
					"name" : "x_23[2]",
					"strict" : false
				},
				{
					"name" : "x_16[2]",
					"strict" : false
				},
				{
					"name" : "x_18[2]",
					"strict" : false
				},
				{
					"name" : "x_17[2]",
					"strict" : false
				},
				{
					"name" : "x_19[2]",
					"strict" : false
				},
				{
					"name" : "x_0[3]",
					"strict" : false
				},
				{
					"name" : "x_4[3]",
					"strict" : false
				},
				{
					"name" : "x_8[3]",
					"strict" : false
				},
				{
					"name" : "x_12[3]",
					"strict" : false
				},
				{
					"name" : "x_2[3]",
					"strict" : false
				},
				{
					"name" : "x_6[3]",
					"strict" : false
				},
				{
					"name" : "x_10[3]",
					"strict" : false
				},
				{
					"name" : "x_14[3]",
					"strict" : false
				},
				{
					"name" : "x_1[3]",
					"strict" : false
				},
				{
					"name" : "x_5[3]",
					"strict" : false
				},
				{
					"name" : "x_9[3]",
					"strict" : false
				},
				{
					"name" : "x_13[3]",
					"strict" : false
				},
				{
					"name" : "x_3[3]",
					"strict" : false
				},
				{
					"name" : "x_7[3]",
					"strict" : false
				},
				{
					"name" : "x_11[3]",
					"strict" : false
				},
				{
					"name" : "x_15[3]",
					"strict" : false
				},
				{
					"name" : "x_20[3]",
					"strict" : false
				},
				{
					"name" : "x_22[3]",
					"strict" : false
				},
				{
					"name" : "x_21[3]",
					"strict" : false
				},
				{
					"name" : "x_23[3]",
					"strict" : false
				},
				{
					"name" : "x_16[3]",
					"strict" : false
				},
				{
					"name" : "x_18[3]",
					"strict" : false
				},
				{
					"name" : "x_17[3]",
					"strict" : false
				},
				{
					"name" : "x_19[3]",
					"strict" : false
				},
				{
					"name" : "x_0[4]",
					"strict" : false
				},
				{
					"name" : "x_4[4]",
					"strict" : false
				},
				{
					"name" : "x_8[4]",
					"strict" : false
				},
				{
					"name" : "x_12[4]",
					"strict" : false
				},
				{
					"name" : "x_2[4]",
					"strict" : false
				},
				{
					"name" : "x_6[4]",
					"strict" : false
				},
				{
					"name" : "x_10[4]",
					"strict" : false
				},
				{
					"name" : "x_14[4]",
					"strict" : false
				},
				{
					"name" : "x_1[4]",
					"strict" : false
				},
				{
					"name" : "x_5[4]",
					"strict" : false
				},
				{
					"name" : "x_9[4]",
					"strict" : false
				},
				{
					"name" : "x_13[4]",
					"strict" : false
				},
				{
					"name" : "x_3[4]",
					"strict" : false
				},
				{
					"name" : "x_7[4]",
					"strict" : false
				},
				{
					"name" : "x_11[4]",
					"strict" : false
				},
				{
					"name" : "x_15[4]",
					"strict" : false
				},
				{
					"name" : "x_20[4]",
					"strict" : false
				},
				{
					"name" : "x_22[4]",
					"strict" : false
				},
				{
					"name" : "x_21[4]",
					"strict" : false
				},
				{
					"name" : "x_23[4]",
					"strict" : false
				},
				{
					"name" : "x_16[4]",
					"strict" : false
				},
				{
					"name" : "x_18[4]",
					"strict" : false
				},
				{
					"name" : "x_17[4]",
					"strict" : false
				},
				{
					"name" : "x_19[4]",
					"strict" : false
				},
				{
					"name" : "x_16[5]",
					"strict" : false
				},
				{
					"name" : "x_18[5]",
					"strict" : false
				},
				{
					"name" : "x_17[5]",
					"strict" : false
				},
				{
					"name" : "x_19[5]",
					"strict" : false
				},
				{
					"name" : "x_0[5]",
					"strict" : false
				},
				{
					"name" : "x_4[5]",
					"strict" : false
				},
				{
					"name" : "x_8[5]",
					"strict" : false
				},
				{
					"name" : "x_12[5]",
					"strict" : false
				},
				{
					"name" : "x_2[5]",
					"strict" : false
				},
				{
					"name" : "x_6[5]",
					"strict" : false
				},
				{
					"name" : "x_10[5]",
					"strict" : false
				},
				{
					"name" : "x_14[5]",
					"strict" : false
				},
				{
					"name" : "x_1[5]",
					"strict" : false
				},
				{
					"name" : "x_5[5]",
					"strict" : false
				},
				{
					"name" : "x_9[5]",
					"strict" : false
				},
				{
					"name" : "x_13[5]",
					"strict" : false
				},
				{
					"name" : "x_3[5]",
					"strict" : false
				},
				{
					"name" : "x_7[5]",
					"strict" : false
				},
				{
					"name" : "x_11[5]",
					"strict" : false
				},
				{
					"name" : "x_15[5]",
					"strict" : false
				},
				{
					"name" : "x_20[5]",
					"strict" : false
				},
				{
					"name" : "x_22[5]",
					"strict" : false
				},
				{
					"name" : "x_21[5]",
					"strict" : false
				},
				{
					"name" : "x_23[5]",
					"strict" : false
				},
				{
					"name" : "x_16[6]",
					"strict" : false
				},
				{
					"name" : "x_18[6]",
					"strict" : false
				},
				{
					"name" : "x_17[6]",
					"strict" : false
				},
				{
					"name" : "x_19[6]",
					"strict" : false
				},
				{
					"name" : "x_0[6]",
					"strict" : false
				},
				{
					"name" : "x_4[6]",
					"strict" : false
				},
				{
					"name" : "x_8[6]",
					"strict" : false
				},
				{
					"name" : "x_12[6]",
					"strict" : false
				},
				{
					"name" : "x_2[6]",
					"strict" : false
				},
				{
					"name" : "x_6[6]",
					"strict" : false
				},
				{
					"name" : "x_10[6]",
					"strict" : false
				},
				{
					"name" : "x_14[6]",
					"strict" : false
				},
				{
					"name" : "x_1[6]",
					"strict" : false
				},
				{
					"name" : "x_5[6]",
					"strict" : false
				},
				{
					"name" : "x_9[6]",
					"strict" : false
				},
				{
					"name" : "x_13[6]",
					"strict" : false
				},
				{
					"name" : "x_3[6]",
					"strict" : false
				},
				{
					"name" : "x_7[6]",
					"strict" : false
				},
				{
					"name" : "x_11[6]",
					"strict" : false
				},
				{
					"name" : "x_15[6]",
					"strict" : false
				},
				{
					"name" : "x_20[6]",
					"strict" : false
				},
				{
					"name" : "x_22[6]",
					"strict" : false
				},
				{
					"name" : "x_21[6]",
					"strict" : false
				},
				{
					"name" : "x_23[6]",
					"strict" : false
				},
				{
					"name" : "x_16[7]",
					"strict" : false
				},
				{
					"name" : "x_18[7]",
					"strict" : false
				},
				{
					"name" : "x_17[7]",
					"strict" : false
				},
				{
					"name" : "x_19[7]",
					"strict" : false
				},
				{
					"name" : "x_0[7]",
					"strict" : false
				},
				{
					"name" : "x_4[7]",
					"strict" : false
				},
				{
					"name" : "x_8[7]",
					"strict" : false
				},
				{
					"name" : "x_12[7]",
					"strict" : false
				},
				{
					"name" : "x_2[7]",
					"strict" : false
				},
				{
					"name" : "x_6[7]",
					"strict" : false
				},
				{
					"name" : "x_10[7]",
					"strict" : false
				},
				{
					"name" : "x_14[7]",
					"strict" : false
				},
				{
					"name" : "x_1[7]",
					"strict" : false
				},
				{
					"name" : "x_5[7]",
					"strict" : false
				},
				{
					"name" : "x_9[7]",
					"strict" : false
				},
				{
					"name" : "x_13[7]",
					"strict" : false
				},
				{
					"name" : "x_3[7]",
					"strict" : false
				},
				{
					"name" : "x_7[7]",
					"strict" : false
				},
				{
					"name" : "x_11[7]",
					"strict" : false
				},
				{
					"name" : "x_15[7]",
					"strict" : false
				},
				{
					"name" : "x_20[7]",
					"strict" : false
				},
				{
					"name" : "x_22[7]",
					"strict" : false
				},
				{
					"name" : "x_21[7]",
					"strict" : false
				},
				{
					"name" : "x_23[7]",
					"strict" : false
				},
				{
					"name" : "x_16[8]",
					"strict" : false
				},
				{
					"name" : "x_18[8]",
					"strict" : false
				},
				{
					"name" : "x_17[8]",
					"strict" : false
				},
				{
					"name" : "x_19[8]",
					"strict" : false
				},
				{
					"name" : "x_0[8]",
					"strict" : false
				},
				{
					"name" : "x_2[8]",
					"strict" : false
				},
				{
					"name" : "x_8[8]",
					"strict" : false
				},
				{
					"name" : "x_10[8]",
					"strict" : false
				},
				{
					"name" : "x_4[8]",
					"strict" : false
				},
				{
					"name" : "x_6[8]",
					"strict" : false
				},
				{
					"name" : "x_12[8]",
					"strict" : false
				},
				{
					"name" : "x_14[8]",
					"strict" : false
				},
				{
					"name" : "x_1[8]",
					"strict" : false
				},
				{
					"name" : "x_3[8]",
					"strict" : false
				},
				{
					"name" : "x_9[8]",
					"strict" : false
				},
				{
					"name" : "x_11[8]",
					"strict" : false
				},
				{
					"name" : "x_5[8]",
					"strict" : false
				},
				{
					"name" : "x_7[8]",
					"strict" : false
				},
				{
					"name" : "x_13[8]",
					"strict" : false
				},
				{
					"name" : "x_15[8]",
					"strict" : false
				},
				{
					"name" : "x_20[8]",
					"strict" : false
				},
				{
					"name" : "x_22[8]",
					"strict" : false
				},
				{
					"name" : "x_21[8]",
					"strict" : false
				},
				{
					"name" : "x_23[8]",
					"strict" : false
				},
				{
					"name" : "x_16[9]",
					"strict" : false
				},
				{
					"name" : "x_18[9]",
					"strict" : false
				},
				{
					"name" : "x_17[9]",
					"strict" : false
				},
				{
					"name" : "x_19[9]",
					"strict" : false
				},
				{
					"name" : "x_0[9]",
					"strict" : false
				},
				{
					"name" : "x_4[9]",
					"strict" : false
				},
				{
					"name" : "x_8[9]",
					"strict" : false
				},
				{
					"name" : "x_12[9]",
					"strict" : false
				},
				{
					"name" : "x_2[9]",
					"strict" : false
				},
				{
					"name" : "x_6[9]",
					"strict" : false
				},
				{
					"name" : "x_10[9]",
					"strict" : false
				},
				{
					"name" : "x_14[9]",
					"strict" : false
				},
				{
					"name" : "x_1[9]",
					"strict" : false
				},
				{
					"name" : "x_5[9]",
					"strict" : false
				},
				{
					"name" : "x_9[9]",
					"strict" : false
				},
				{
					"name" : "x_13[9]",
					"strict" : false
				},
				{
					"name" : "x_3[9]",
					"strict" : false
				},
				{
					"name" : "x_7[9]",
					"strict" : false
				},
				{
					"name" : "x_11[9]",
					"strict" : false
				},
				{
					"name" : "x_15[9]",
					"strict" : false
				},
				{
					"name" : "x_20[9]",
					"strict" : false
				},
				{
					"name" : "x_22[9]",
					"strict" : false
				},
				{
					"name" : "x_21[9]",
					"strict" : false
				},
				{
					"name" : "x_23[9]",
					"strict" : false
				},
				{
					"name" : "x_16[10]",
					"strict" : false
				},
				{
					"name" : "x_18[10]",
					"strict" : false
				},
				{
					"name" : "x_17[10]",
					"strict" : false
				},
				{
					"name" : "x_19[10]",
					"strict" : false
				},
				{
					"name" : "x_0[10]",
					"strict" : false
				},
				{
					"name" : "x_1[10]",
					"strict" : false
				},
				{
					"name" : "x_8[10]",
					"strict" : false
				},
				{
					"name" : "x_9[10]",
					"strict" : false
				},
				{
					"name" : "x_2[10]",
					"strict" : false
				},
				{
					"name" : "x_3[10]",
					"strict" : false
				},
				{
					"name" : "x_10[10]",
					"strict" : false
				},
				{
					"name" : "x_11[10]",
					"strict" : false
				},
				{
					"name" : "x_4[10]",
					"strict" : false
				},
				{
					"name" : "x_5[10]",
					"strict" : false
				},
				{
					"name" : "x_12[10]",
					"strict" : false
				},
				{
					"name" : "x_13[10]",
					"strict" : false
				},
				{
					"name" : "x_6[10]",
					"strict" : false
				},
				{
					"name" : "x_7[10]",
					"strict" : false
				},
				{
					"name" : "x_14[10]",
					"strict" : false
				},
				{
					"name" : "x_15[10]",
					"strict" : false
				},
				{
					"name" : "x_20[10]",
					"strict" : false
				},
				{
					"name" : "x_22[10]",
					"strict" : false
				},
				{
					"name" : "x_21[10]",
					"strict" : false
				},
				{
					"name" : "x_23[10]",
					"strict" : false
				},
				{
					"name" : "x_16[11]",
					"strict" : false
				},
				{
					"name" : "x_18[11]",
					"strict" : false
				},
				{
					"name" : "x_17[11]",
					"strict" : false
				},
				{
					"name" : "x_19[11]",
					"strict" : false
				},
				{
					"name" : "x_0[11]",
					"strict" : false
				},
				{
					"name" : "x_2[11]",
					"strict" : false
				},
				{
					"name" : "x_8[11]",
					"strict" : false
				},
				{
					"name" : "x_10[11]",
					"strict" : false
				},
				{
					"name" : "x_4[11]",
					"strict" : false
				},
				{
					"name" : "x_6[11]",
					"strict" : false
				},
				{
					"name" : "x_12[11]",
					"strict" : false
				},
				{
					"name" : "x_14[11]",
					"strict" : false
				},
				{
					"name" : "x_1[11]",
					"strict" : false
				},
				{
					"name" : "x_3[11]",
					"strict" : false
				},
				{
					"name" : "x_9[11]",
					"strict" : false
				},
				{
					"name" : "x_11[11]",
					"strict" : false
				},
				{
					"name" : "x_5[11]",
					"strict" : false
				},
				{
					"name" : "x_7[11]",
					"strict" : false
				},
				{
					"name" : "x_13[11]",
					"strict" : false
				},
				{
					"name" : "x_15[11]",
					"strict" : false
				},
				{
					"name" : "x_20[11]",
					"strict" : false
				},
				{
					"name" : "x_22[11]",
					"strict" : false
				},
				{
					"name" : "x_21[11]",
					"strict" : false
				},
				{
					"name" : "x_23[11]",
					"strict" : false
				},
				{
					"name" : "x_16[12]",
					"strict" : false
				},
				{
					"name" : "x_18[12]",
					"strict" : false
				},
				{
					"name" : "x_17[12]",
					"strict" : false
				},
				{
					"name" : "x_19[12]",
					"strict" : false
				},
				{
					"name" : "x_0[12]",
					"strict" : false
				},
				{
					"name" : "x_4[12]",
					"strict" : false
				},
				{
					"name" : "x_8[12]",
					"strict" : false
				},
				{
					"name" : "x_12[12]",
					"strict" : false
				},
				{
					"name" : "x_2[12]",
					"strict" : false
				},
				{
					"name" : "x_6[12]",
					"strict" : false
				},
				{
					"name" : "x_10[12]",
					"strict" : false
				},
				{
					"name" : "x_14[12]",
					"strict" : false
				},
				{
					"name" : "x_1[12]",
					"strict" : false
				},
				{
					"name" : "x_5[12]",
					"strict" : false
				},
				{
					"name" : "x_9[12]",
					"strict" : false
				},
				{
					"name" : "x_13[12]",
					"strict" : false
				},
				{
					"name" : "x_3[12]",
					"strict" : false
				},
				{
					"name" : "x_7[12]",
					"strict" : false
				},
				{
					"name" : "x_11[12]",
					"strict" : false
				},
				{
					"name" : "x_15[12]",
					"strict" : false
				},
				{
					"name" : "x_20[12]",
					"strict" : false
				},
				{
					"name" : "x_22[12]",
					"strict" : false
				},
				{
					"name" : "x_21[12]",
					"strict" : false
				},
				{
					"name" : "x_23[12]",
					"strict" : false
				},
				{
					"name" : "x_16[13]",
					"strict" : false
				},
				{
					"name" : "x_18[13]",
					"strict" : false
				},
				{
					"name" : "x_17[13]",
					"strict" : false
				},
				{
					"name" : "x_19[13]",
					"strict" : false
				},
				{
					"name" : "x_0[13]",
					"strict" : false
				},
				{
					"name" : "x_1[13]",
					"strict" : false
				},
				{
					"name" : "x_8[13]",
					"strict" : false
				},
				{
					"name" : "x_9[13]",
					"strict" : false
				},
				{
					"name" : "x_2[13]",
					"strict" : false
				},
				{
					"name" : "x_3[13]",
					"strict" : false
				},
				{
					"name" : "x_10[13]",
					"strict" : false
				},
				{
					"name" : "x_11[13]",
					"strict" : false
				},
				{
					"name" : "x_4[13]",
					"strict" : false
				},
				{
					"name" : "x_5[13]",
					"strict" : false
				},
				{
					"name" : "x_12[13]",
					"strict" : false
				},
				{
					"name" : "x_13[13]",
					"strict" : false
				},
				{
					"name" : "x_6[13]",
					"strict" : false
				},
				{
					"name" : "x_7[13]",
					"strict" : false
				},
				{
					"name" : "x_14[13]",
					"strict" : false
				},
				{
					"name" : "x_15[13]",
					"strict" : false
				},
				{
					"name" : "x_20[13]",
					"strict" : false
				},
				{
					"name" : "x_22[13]",
					"strict" : false
				},
				{
					"name" : "x_21[13]",
					"strict" : false
				},
				{
					"name" : "x_23[13]",
					"strict" : false
				},
				{
					"name" : "x_16[14]",
					"strict" : false
				},
				{
					"name" : "x_18[14]",
					"strict" : false
				},
				{
					"name" : "x_17[14]",
					"strict" : false
				},
				{
					"name" : "x_19[14]",
					"strict" : false
				},
				{
					"name" : "x_0[14]",
					"strict" : false
				},
				{
					"name" : "x_2[14]",
					"strict" : false
				},
				{
					"name" : "x_1[14]",
					"strict" : false
				},
				{
					"name" : "x_3[14]",
					"strict" : false
				},
				{
					"name" : "x_4[14]",
					"strict" : false
				},
				{
					"name" : "x_6[14]",
					"strict" : false
				},
				{
					"name" : "x_5[14]",
					"strict" : false
				},
				{
					"name" : "x_7[14]",
					"strict" : false
				},
				{
					"name" : "x_8[14]",
					"strict" : false
				},
				{
					"name" : "x_10[14]",
					"strict" : false
				},
				{
					"name" : "x_9[14]",
					"strict" : false
				},
				{
					"name" : "x_11[14]",
					"strict" : false
				},
				{
					"name" : "x_12[14]",
					"strict" : false
				},
				{
					"name" : "x_14[14]",
					"strict" : false
				},
				{
					"name" : "x_13[14]",
					"strict" : false
				},
				{
					"name" : "x_15[14]",
					"strict" : false
				},
				{
					"name" : "x_20[14]",
					"strict" : false
				},
				{
					"name" : "x_22[14]",
					"strict" : false
				},
				{
					"name" : "x_21[14]",
					"strict" : false
				},
				{
					"name" : "x_23[14]",
					"strict" : false
				},
				{
					"name" : "x_16[15]",
					"strict" : false
				},
				{
					"name" : "x_18[15]",
					"strict" : false
				},
				{
					"name" : "x_17[15]",
					"strict" : false
				},
				{
					"name" : "x_19[15]",
					"strict" : false
				},
				{
					"name" : "x_0[15]",
					"strict" : false
				},
				{
					"name" : "x_4[15]",
					"strict" : false
				},
				{
					"name" : "x_8[15]",
					"strict" : false
				},
				{
					"name" : "x_12[15]",
					"strict" : false
				},
				{
					"name" : "x_2[15]",
					"strict" : false
				},
				{
					"name" : "x_6[15]",
					"strict" : false
				},
				{
					"name" : "x_10[15]",
					"strict" : false
				},
				{
					"name" : "x_14[15]",
					"strict" : false
				},
				{
					"name" : "x_1[15]",
					"strict" : false
				},
				{
					"name" : "x_5[15]",
					"strict" : false
				},
				{
					"name" : "x_9[15]",
					"strict" : false
				},
				{
					"name" : "x_13[15]",
					"strict" : false
				},
				{
					"name" : "x_3[15]",
					"strict" : false
				},
				{
					"name" : "x_7[15]",
					"strict" : false
				},
				{
					"name" : "x_11[15]",
					"strict" : false
				},
				{
					"name" : "x_15[15]",
					"strict" : false
				},
				{
					"name" : "x_20[15]",
					"strict" : false
				},
				{
					"name" : "x_22[15]",
					"strict" : false
				},
				{
					"name" : "x_21[15]",
					"strict" : false
				},
				{
					"name" : "x_23[15]",
					"strict" : false
				},
				{
					"name" : "x_0[18]",
					"strict" : false
				},
				{
					"name" : "x_2[18]",
					"strict" : false
				},
				{
					"name" : "x_1[18]",
					"strict" : false
				},
				{
					"name" : "x_3[18]",
					"strict" : false
				},
				{
					"name" : "x_4[18]",
					"strict" : false
				},
				{
					"name" : "x_6[18]",
					"strict" : false
				},
				{
					"name" : "x_5[18]",
					"strict" : false
				},
				{
					"name" : "x_7[18]",
					"strict" : false
				},
				{
					"name" : "x_8[18]",
					"strict" : false
				},
				{
					"name" : "x_10[18]",
					"strict" : false
				},
				{
					"name" : "x_9[18]",
					"strict" : false
				},
				{
					"name" : "x_11[18]",
					"strict" : false
				},
				{
					"name" : "x_12[18]",
					"strict" : false
				},
				{
					"name" : "x_14[18]",
					"strict" : false
				},
				{
					"name" : "x_13[18]",
					"strict" : false
				},
				{
					"name" : "x_15[18]",
					"strict" : false
				},
				{
					"name" : "x_20[18]",
					"strict" : false
				},
				{
					"name" : "x_22[18]",
					"strict" : false
				},
				{
					"name" : "x_21[18]",
					"strict" : false
				},
				{
					"name" : "x_23[18]",
					"strict" : false
				},
				{
					"name" : "x_16[18]",
					"strict" : false
				},
				{
					"name" : "x_18[18]",
					"strict" : false
				},
				{
					"name" : "x_17[18]",
					"strict" : false
				},
				{
					"name" : "x_19[18]",
					"strict" : false
				},
				{
					"name" : "x_0[19]",
					"strict" : false
				},
				{
					"name" : "x_4[19]",
					"strict" : false
				},
				{
					"name" : "x_8[19]",
					"strict" : false
				},
				{
					"name" : "x_12[19]",
					"strict" : false
				},
				{
					"name" : "x_2[19]",
					"strict" : false
				},
				{
					"name" : "x_6[19]",
					"strict" : false
				},
				{
					"name" : "x_10[19]",
					"strict" : false
				},
				{
					"name" : "x_14[19]",
					"strict" : false
				},
				{
					"name" : "x_1[19]",
					"strict" : false
				},
				{
					"name" : "x_5[19]",
					"strict" : false
				},
				{
					"name" : "x_9[19]",
					"strict" : false
				},
				{
					"name" : "x_13[19]",
					"strict" : false
				},
				{
					"name" : "x_3[19]",
					"strict" : false
				},
				{
					"name" : "x_7[19]",
					"strict" : false
				},
				{
					"name" : "x_11[19]",
					"strict" : false
				},
				{
					"name" : "x_15[19]",
					"strict" : false
				},
				{
					"name" : "x_20[19]",
					"strict" : false
				},
				{
					"name" : "x_22[19]",
					"strict" : false
				},
				{
					"name" : "x_21[19]",
					"strict" : false
				},
				{
					"name" : "x_23[19]",
					"strict" : false
				},
				{
					"name" : "x_16[19]",
					"strict" : false
				},
				{
					"name" : "x_18[19]",
					"strict" : false
				},
				{
					"name" : "x_17[19]",
					"strict" : false
				},
				{
					"name" : "x_19[19]",
					"strict" : false
				},
				{
					"name" : "clk",
					"strict" : false
				},
				{
					"name" : "rst",
					"strict" : false
				}
			]
		}
	]
}