\relax 
\@nameuse{bbl@beforestart}
\babel@aux{english}{}
\@writefile{toc}{\contentsline {section}{\numberline {1}Stack Processor (Haskell, ghci)}{1}\protected@file@percent }
\newlabel{lst:a1}{{1}{1}}
\@writefile{lol}{\contentsline {lstlisting}{\numberline {1}Haskell Code of Stack Processor}{1}\protected@file@percent }
\@writefile{lof}{\contentsline {figure}{\numberline {1}{\ignorespaces Simulation Results of function Test from listing \ref  {lst:a1}}}{2}\protected@file@percent }
\newlabel{fig:a1}{{1}{2}}
\@writefile{toc}{\contentsline {section}{\numberline {2}Heap and Stack Processor (Haskell, ghci)}{2}\protected@file@percent }
\newlabel{lst:a2}{{2}{2}}
\@writefile{lol}{\contentsline {lstlisting}{\numberline {2}Haskell Code of Heap and Stack Processor}{2}\protected@file@percent }
\newlabel{fig:a2}{{2}{3}}
\@writefile{lof}{\contentsline {figure}{\numberline {2}{\ignorespaces Simulation Results of function Test from listing \ref  {lst:a2}}}{3}\protected@file@percent }
\@writefile{toc}{\contentsline {section}{\numberline {3}Heap, Stack and Program Counter (Haskell, ghci)}{3}\protected@file@percent }
\newlabel{lst:a3}{{3}{3}}
\@writefile{lol}{\contentsline {lstlisting}{\numberline {3}Haskell Code of Heap, Stack and Program Counter Processor}{3}\protected@file@percent }
\newlabel{fig:a3}{{3}{5}}
\@writefile{lof}{\contentsline {figure}{\numberline {3}{\ignorespaces Simulation Results of function Test from listing \ref  {lst:a3}}}{5}\protected@file@percent }
\@writefile{toc}{\contentsline {section}{\numberline {4}Heap, Stack, Program Counter, and Single Stack Access (Haskell, GHCI)}{5}\protected@file@percent }
\newlabel{lst:a4}{{4}{5}}
\@writefile{lol}{\contentsline {lstlisting}{\numberline {4}Haskell Code of Heap, Stack, Program Counter and Single Stack Access Processor}{5}\protected@file@percent }
\@writefile{lof}{\contentsline {figure}{\numberline {4}{\ignorespaces Simulation Results of function Test from listing \ref  {lst:a4}}}{6}\protected@file@percent }
\newlabel{fig:a4}{{4}{6}}
\@writefile{toc}{\contentsline {section}{\numberline {5}CPU Fixed}{6}\protected@file@percent }
\@writefile{lof}{\contentsline {figure}{\numberline {5}{\ignorespaces Focused Snapshot of Program counter in produced RTL schematic for the core function \ref  {lst:a5}}}{7}\protected@file@percent }
\newlabel{fig:pc1}{{5}{7}}
\@writefile{lof}{\contentsline {figure}{\numberline {6}{\ignorespaces Focused Snapshot of Program counter in produced RTL schematic for the core function \ref  {lst:a5}}}{8}\protected@file@percent }
\newlabel{fig:pc2}{{6}{8}}
\@writefile{lof}{\contentsline {figure}{\numberline {7}{\ignorespaces Result of Simulation from both Instantiated Clash topEntities.}}{8}\protected@file@percent }
\newlabel{fig:resultclash}{{7}{8}}
\@writefile{lof}{\contentsline {figure}{\numberline {8}{\ignorespaces Flow summary from function core}}{9}\protected@file@percent }
\newlabel{fig:flowc1}{{8}{9}}
\@writefile{lof}{\contentsline {figure}{\numberline {9}{\ignorespaces Flow summary from function core2}}{9}\protected@file@percent }
\newlabel{fig:flowc2}{{9}{9}}
\newlabel{lst:a5}{{5}{10}}
\@writefile{lol}{\contentsline {lstlisting}{\numberline {5}Clash Implementation of Heap, Stack, Program Counter and Stack Access Processor}{10}\protected@file@percent }
\@writefile{lof}{\contentsline {figure}{\numberline {10}{\ignorespaces Snapshot of RTL Schematic which Shows the Execute Function Being Fed by the Memory Edges}}{12}\protected@file@percent }
\newlabel{fig:execute}{{10}{12}}
\@writefile{lof}{\contentsline {figure}{\numberline {11}{\ignorespaces Snapshot of RTL Schematic which Shows the \texttt  {ALU} Function}}{12}\protected@file@percent }
\newlabel{fig:alu}{{11}{12}}
