\babel@toc {english}{}
\contentsline {section}{\numberline {1}Stack Processor (Haskell, ghci)}{1}%
\contentsline {section}{\numberline {2}Heap and Stack Processor (Haskell, ghci)}{2}%
\contentsline {section}{\numberline {3}Heap, Stack and Program Counter (Haskell, ghci)}{3}%
\contentsline {section}{\numberline {4}Heap, Stack, Program Counter, and Single Stack Access (Haskell, GHCI)}{5}%
\contentsline {section}{\numberline {5}CPU Fixed}{6}%
